%YAML 1.1
%TAG !u! tag:unity3d.com,2011:
--- !u!1 &7582412805270916793
GameObject:
  m_ObjectHideFlags: 0
  m_CorrespondingSourceObject: {fileID: 0}
  m_PrefabInstance: {fileID: 0}
  m_PrefabAsset: {fileID: 0}
  serializedVersion: 6
  m_Component:
  - component: {fileID: 7582412805270916799}
  - component: {fileID: 7582412805270916792}
  m_Layer: 0
  m_Name: WIND CONTROL
  m_TagString: Untagged
  m_Icon: {fileID: 0}
  m_NavMeshLayer: 0
  m_StaticEditorFlags: 0
  m_IsActive: 1
--- !u!4 &7582412805270916799
Transform:
  m_ObjectHideFlags: 0
  m_CorrespondingSourceObject: {fileID: 0}
  m_PrefabInstance: {fileID: 0}
  m_PrefabAsset: {fileID: 0}
  m_GameObject: {fileID: 7582412805270916793}
  m_LocalRotation: {x: -0, y: -0.83572453, z: -0, w: 0.54914904}
  m_LocalPosition: {x: 0, y: 0, z: 0}
  m_LocalScale: {x: 1, y: 1, z: 1}
  m_Children: []
  m_Father: {fileID: 0}
  m_RootOrder: 0
  m_LocalEulerAnglesHint: {x: 0, y: -113.383, z: 0}
--- !u!114 &7582412805270916792
MonoBehaviour:
  m_ObjectHideFlags: 0
  m_CorrespondingSourceObject: {fileID: 0}
  m_PrefabInstance: {fileID: 0}
  m_PrefabAsset: {fileID: 0}
  m_GameObject: {fileID: 7582412805270916793}
  m_Enabled: 1
  m_EditorHideFlags: 0
  m_Script: {fileID: 11500000, guid: d0d8a3c9bffda7048a0f95ffa49c2183, type: 3}
  m_Name: 
  m_EditorClassIdentifier: 
  windDirectionStrength: 0
  windNoiseStrength: 0
  windSpeed: 0
  windNoiseScale: 0.15
  windNoiseTexture: {fileID: 2800000, guid: 6373380e25671b142917e356b5f57d76, type: 3}
