# 3ds Max Wavefront OBJ Exporter v0.97b - (c)2007 guruware
# File Created: 29.03.2020 22:20:09

mtllib ground_1.mtl

#
# object Object007
#

v  387.4375 -109.9637 429.1953
v  327.8750 -12.9036 352.6641
v  226.2500 -13.0791 475.9375
v  273.1250 -110.0582 562.2500
v  66.0000 -13.4300 526.1719
v  82.9375 -110.5711 622.2734
v  -159.5000 -28.1422 503.3047
v  -173.3750 -111.1785 577.0547
v  -299.4375 -27.6158 378.7266
v  -372.8750 -111.7184 434.1250
v  328.0625 72.0762 307.9688
v  178.1875 84.4669 445.4609
v  53.0000 77.5833 483.4531
v  -129.1250 64.5987 474.8594
v  -272.2500 55.3799 327.4141
v  559.5625 -109.6533 253.5078
v  471.0625 -13.4165 202.5156
v  654.6875 -109.5723 -21.0781
v  545.9375 -38.0493 -21.6641
v  615.8125 -109.8017 -289.4375
v  520.5000 -38.2113 -232.7344
v  520.4375 56.1223 -20.4766
v  430.3750 56.1628 175.6328
v  496.1875 49.6841 -221.9531
v  398.8750 -38.4003 -356.3047
v  455.0000 -110.0447 -442.8359
v  386.6875 56.6758 -318.2734
v  212.6250 -110.8140 -456.3359
v  160.7500 -39.1156 -366.3203
v  41.2500 -111.2999 -617.4063
v  23.3125 -39.5071 -508.1094
v  -232.0000 -111.9343 -622.2656
v  -200.7500 -40.0335 -522.1797
v  -447.3125 -112.3527 -451.7734
v  -377.3125 -28.0342 -387.4688
v  -355.1250 61.2243 -360.1797
v  -185.8125 42.7464 -489.4063
v  21.5000 53.2068 -484.8125
v  152.6875 63.1949 -349.4766
v  -581.3750 -112.5282 -186.4375
v  -489.1875 -5.6285 -157.7266
v  -654.6250 -112.4337 101.7031
v  -561.0625 -27.6833 109.3125
v  -570.5625 -112.2448 323.2344
v  -494.5000 -25.8207 275.6016
v  -455.8750 52.5320 258.0859
v  -512.7500 79.4594 75.7500
v  -434.3750 82.9957 -153.9219
# 48 vertices

vn 0.5257 0.7018 0.4808
vn 0.6396 0.5236 0.5628
vn 0.4563 0.6123 0.6456
vn 0.3812 0.7107 0.5913
vn 0.0635 0.5861 0.8077
vn 0.0515 0.7069 0.7054
vn -0.3767 0.5448 0.7492
vn -0.2796 0.6632 0.6943
vn -0.4392 0.6457 0.6246
vn -0.3711 0.7146 0.5930
vn 0.7242 0.3197 0.6111
vn 0.4124 0.4505 0.7918
vn 0.0824 0.4331 0.8976
vn -0.3533 0.3782 0.8556
vn -0.4622 0.5711 0.6785
vn 0.5839 0.7277 0.3599
vn 0.6609 0.6588 0.3595
vn 0.5487 0.8347 0.0466
vn 0.7847 0.6183 0.0448
vn 0.4799 0.8398 -0.2538
vn 0.6973 0.6372 -0.3282
vn 0.9537 0.2563 0.1575
vn 0.7148 0.5728 0.4013
vn 0.8452 0.2890 -0.4495
vn 0.2874 0.6584 -0.6956
vn 0.2392 0.8184 -0.5226
vn 0.3976 0.3843 -0.8332
vn 0.2084 0.8200 -0.5330
vn 0.3555 0.5044 -0.7869
vn 0.1881 0.8348 -0.5175
vn 0.3458 0.6083 -0.7144
vn -0.1811 0.8246 -0.5359
vn -0.2003 0.6703 -0.7145
vn -0.5130 0.7476 -0.4219
vn -0.5948 0.5900 -0.5460
vn -0.7459 0.3575 -0.5621
vn -0.2711 0.3963 -0.8772
vn 0.4092 0.2298 -0.8831
vn 0.4377 0.1797 -0.8810
vn -0.6960 0.6698 -0.2586
vn -0.7548 0.5932 -0.2800
vn -0.6725 0.7396 0.0268
vn -0.7799 0.6188 0.0941
vn -0.5374 0.7173 0.4435
vn -0.5866 0.6111 0.5315
vn -0.6072 0.4462 0.6574
vn -0.9167 0.3955 -0.0568
vn -0.8006 0.5089 -0.3162
# 48 vertex normals

vt -0.0182 1.0007 0.0000
vt -0.0182 0.4656 0.0000
vt 0.2019 0.4656 0.0000
vt 0.2019 1.0007 0.0000
vt 0.4490 0.4656 0.0000
vt 0.4490 1.0007 0.0000
vt 0.7347 0.4656 0.0000
vt 0.7347 1.0007 0.0000
vt 1.0107 0.4656 0.0000
vt 1.0107 1.0007 0.0000
vt -0.0182 -0.0410 0.0000
vt 0.2019 -0.0410 0.0000
vt 0.4490 -0.0410 0.0000
vt 0.7347 -0.0410 0.0000
vt 1.0107 -0.0410 0.0000
vt -0.0013 0.4563 0.0000
vt -0.0013 0.9905 0.0000
vt 0.2631 0.9905 0.0000
vt 0.2631 0.4563 0.0000
vt 0.5728 0.9905 0.0000
vt 0.5555 0.4563 0.0000
vt 0.8279 0.9905 0.0000
vt 0.8124 0.4563 0.0000
vt 0.5502 -0.0512 0.0000
vt 0.2631 -0.0512 0.0000
vt -0.0013 -0.0512 0.0000
vt 0.8159 -0.0512 0.0000
vt 1.0156 0.4563 0.0000
vt 1.0156 0.9905 0.0000
vt 1.0156 -0.0512 0.0000
vt 1.0165 0.9847 0.0000
vt 0.7001 0.9847 0.0000
vt 0.7001 0.4372 0.0000
vt 1.0165 0.4372 0.0000
vt 0.4703 0.9847 0.0000
vt 0.4703 0.4372 0.0000
vt 0.2507 0.9847 0.0000
vt 0.2507 0.4372 0.0000
vt -0.0040 0.9847 0.0000
vt -0.0040 0.4372 0.0000
vt -0.0040 -0.0570 0.0000
vt 0.2507 -0.0570 0.0000
vt 0.4703 -0.0570 0.0000
vt 0.7001 -0.0570 0.0000
vt 1.0165 -0.0570 0.0000
vt 0.2689 1.0007 0.0000
vt 0.2711 0.4323 0.0000
vt -0.0248 0.4323 0.0000
vt -0.0248 1.0007 0.0000
vt 0.5666 1.0007 0.0000
vt 0.5666 0.4323 0.0000
vt 0.7689 1.0007 0.0000
vt 0.7689 0.4323 0.0000
vt 1.0173 1.0007 0.0000
vt 1.0173 0.4323 0.0000
vt 1.0173 -0.0410 0.0000
vt 0.7689 -0.0410 0.0000
vt 0.5666 -0.0410 0.0000
vt 0.2711 -0.0410 0.0000
vt -0.0248 -0.0410 0.0000
# 60 texture coords

o Object007
g Object007
usemtl 08___Default
s 1
f 1/1/1 2/2/2 3/3/3 4/4/4 
f 3/3/3 5/5/5 6/6/6 4/4/4 
f 7/7/7 8/8/8 6/6/6 5/5/5 
f 9/9/9 10/10/10 8/8/8 7/7/7 
f 3/3/3 2/2/2 11/11/11 12/12/12 
f 12/12/12 13/13/13 5/5/5 3/3/3 
f 5/5/5 13/13/13 14/14/14 7/7/7 
f 9/9/9 7/7/7 14/14/14 15/15/15 
f 2/16/2 1/17/1 16/18/16 17/19/17 
f 16/18/16 18/20/18 19/21/19 17/19/17 
f 18/20/18 20/22/20 21/23/21 19/21/19 
f 17/19/17 19/21/19 22/24/22 23/25/23 
f 17/19/17 23/25/23 11/26/11 2/16/2 
f 22/24/22 19/21/19 21/23/21 24/27/24 
f 25/28/25 21/23/21 20/22/20 26/29/26 
f 25/28/25 27/30/27 24/27/24 21/23/21 
f 26/31/26 28/32/28 29/33/29 25/34/25 
f 30/35/30 31/36/31 29/33/29 28/32/28 
f 32/37/32 33/38/33 31/36/31 30/35/30 
f 34/39/34 35/40/35 33/38/33 32/37/32 
f 35/40/35 36/41/36 37/42/37 33/38/33 
f 38/43/38 31/36/31 33/38/33 37/42/37 
f 39/44/39 29/33/29 31/36/31 38/43/38 
f 39/44/39 27/45/27 25/34/25 29/33/29 
f 40/46/40 41/47/41 35/48/35 34/49/34 
f 40/46/40 42/50/42 43/51/43 41/47/41 
f 43/51/43 42/50/42 44/52/44 45/53/45 
f 44/52/44 10/54/10 9/55/9 45/53/45 
f 45/53/45 9/55/9 15/56/15 46/57/46 
f 45/53/45 46/57/46 47/58/47 43/51/43 
f 48/59/48 41/47/41 43/51/43 47/58/47 
f 41/47/41 48/59/48 36/60/36 35/48/35 
# 32 polygons

#
# object Object006
#

v  211.4375 99.3141 207.0938
v  178.1875 84.4669 445.4609
v  328.0625 72.0762 307.9688
v  430.3750 56.1628 175.6328
v  520.4375 56.1223 -20.4766
v  336.5000 95.6563 -111.0938
v  496.1875 49.6841 -221.9531
v  386.6875 56.6758 -318.2734
v  -49.9375 99.8945 303.0859
v  53.0000 77.5833 483.4531
v  75.6250 99.2197 -222.9453
v  -129.1250 64.5987 474.8594
v  -312.5625 110.0175 105.8438
v  -272.2500 55.3799 327.4141
v  -512.7500 79.4594 75.7500
v  -455.8750 52.5320 258.0859
v  -434.3750 82.9957 -153.9219
v  -355.1250 61.2243 -360.1797
v  -193.8125 112.5282 -296.6953
v  152.6875 63.1949 -349.4766
v  21.5000 53.2068 -484.8125
v  -185.8125 42.7464 -489.4063
# 22 vertices

vn 0.0984 0.9941 0.0447
vn 0.0130 0.9979 0.0640
vn -0.0930 0.9775 -0.1895
vn 0.2036 0.9759 0.0786
vn 0.1982 0.9798 0.0252
vn 0.1411 0.9883 -0.0572
vn 0.1022 0.9938 -0.0441
vn 0.1082 0.9814 -0.1584
vn -0.0206 0.9952 0.0953
vn -0.0377 0.9889 0.1438
vn 0.0703 0.9916 -0.1088
vn -0.1314 0.9812 0.1410
vn -0.1068 0.9884 0.1076
vn -0.2812 0.9186 0.2777
vn -0.1609 0.9844 0.0711
vn -0.0793 0.9823 0.1698
vn -0.0350 0.9956 -0.0872
vn -0.2013 0.9463 -0.2530
vn -0.0864 0.9792 -0.1838
vn 0.0931 0.9711 -0.2198
vn 0.0626 0.9702 -0.2342
vn -0.0450 0.9790 -0.1989
# 22 vertex normals

vt 0.8194 0.0934 0.0000
vt 1.0300 0.2737 0.0000
vt 0.9932 0.0421 0.0000
vt 0.9319 -0.1427 0.0000
vt 0.7946 -0.3510 0.0000
vt 0.5892 -0.2242 0.0000
vt 0.5833 -0.4568 0.0000
vt 0.4191 -0.4081 0.0000
vt 0.7509 0.4063 0.0000
vt 0.9910 0.4185 0.0000
vt 0.3193 -0.0424 0.0000
vt 0.8728 0.5928 0.0000
vt 0.3974 0.5387 0.0000
vt 0.6430 0.6501 0.0000
vt 0.2424 0.7181 0.0000
vt 0.4588 0.7840 0.0000
vt 0.0661 0.4969 0.0000
vt -0.0895 0.2892 0.0000
vt 0.0864 0.1746 0.0000
vt 0.2401 -0.2017 0.0000
vt 0.0258 -0.1561 0.0000
vt -0.1130 0.0408 0.0000
# 22 texture coords

o Object006
g Object006
usemtl 07___Default
s 1
f 49/61/49 50/62/50 51/63/51 52/64/52 
f 52/64/52 53/65/53 54/66/54 49/61/49 
f 54/66/54 53/65/53 55/67/55 56/68/56 
f 50/62/50 49/61/49 57/69/57 58/70/58 
f 57/69/57 49/61/49 54/66/54 59/71/59 
f 57/69/57 60/72/60 58/70/58 
f 61/73/61 62/74/62 60/72/60 57/69/57 
f 62/74/62 61/73/61 63/75/63 64/76/64 
f 63/75/63 61/73/61 65/77/65 
f 66/78/66 65/77/65 61/73/61 67/79/67 
f 59/71/59 67/79/67 61/73/61 57/69/57 
f 59/71/59 54/66/54 56/68/56 68/80/68 
f 69/81/69 67/79/67 59/71/59 68/80/68 
f 70/82/70 66/78/66 67/79/67 69/81/69 
# 12 polygons - 2 triangles

