# 3ds Max Wavefront OBJ Exporter v0.97b - (c)2007 guruware
# File Created: 29.03.2020 22:21:08

mtllib ground_3.mtl

#
# object Object003
#

v  449.4531 88.9165 660.1875
v  384.6250 88.5977 462.1875
v  334.0156 119.4501 480.8750
v  397.3906 120.0708 683.6875
v  590.0625 -118.9972 374.5000
v  446.1250 -49.4075 426.1250
v  506.2031 -38.9052 609.3750
v  641.2188 -118.6785 548.6250
v  445.5000 -50.9845 42.7500
v  572.5156 -119.8193 18.5625
v  467.2344 -120.0877 -169.9375
v  340.3438 -36.8417 -157.0625
v  413.7188 87.6582 30.6250
v  352.0938 118.9133 44.2500
v  277.3594 87.4401 -174.8750
v  192.7969 118.6783 -165.7500
v  240.3281 87.1046 -362.8750
v  165.8594 117.8060 -353.4375
v  -36.9219 118.0744 -626.6875
v  24.7813 86.8866 -625.1250
v  -20.6250 86.3161 -936.4375
v  -83.2500 117.4370 -944.1250
v  121.0156 -51.4374 -566.4375
v  77.4844 -41.5056 -858.4375
v  268.2344 -120.6917 -565.7500
v  233.5469 -121.2789 -837.3125
v  324.7188 -40.2138 -333.8750
v  445.1875 -120.4568 -335.2500
v  -561.9375 -35.1305 20.9375
v  -666.5156 -117.6719 -19.5625
v  -812.1719 -117.0176 146.5625
v  -713.7969 -33.9058 170.8750
v  -682.6563 -118.0577 -192.2500
v  -563.7500 -44.3744 -170.6875
v  -495.5313 89.0340 12.9375
v  -486.3281 88.5306 -224.1875
v  -653.3125 89.6379 185.5625
v  -475.7031 -44.8777 -326.1250
v  -616.1250 -118.4771 -318.5625
v  -382.5000 87.9939 -400.2500
v  -482.4531 -40.1635 -696.5625
v  -642.6563 -119.0476 -584.1250
v  -378.1094 87.0878 -833.0000
v  -338.4219 118.9971 -407.4375
v  -430.8438 119.2320 -226.2500
v  -425.0313 120.0876 65.2500
v  -585.1563 120.6581 222.1250
v  -736.8594 -116.6317 370.3750
v  -587.4531 -42.8813 477.0625
v  -506.9063 90.2419 585.3125
v  -447.3906 121.2452 614.4375
v  -583.0313 121.8492 821.9375
v  -619.2969 90.7787 734.0000
v  -1003.3594 91.5170 824.0000
v  -867.5781 119.3326 1033.0000
v  -700.0313 -42.4283 599.1875
v  -789.2656 -116.4472 433.5625
v  -1024.4219 -116.0781 389.0000
v  -996.9688 -36.3048 637.4375
v  519.5625 116.0444 1067.3750
v  588.7344 -45.8843 967.8750
v  708.0625 -117.9738 893.5000
v  -243.8438 117.4370 -1064.1250
v  -269.2656 86.3161 -1122.9375
v  -390.9844 86.7020 -1028.5000
v  -322.0156 117.6886 -1000.2500
v  -310.4531 -41.5056 -1154.2500
v  -440.6563 -32.6979 -1106.7500
v  -505.0938 -33.7212 -1017.1250
v  -525.5469 -31.9765 -857.5625
v  -536.4844 -120.8091 -1239.4375
v  -661.5781 -120.1716 -1066.7500
v  -371.9688 -121.2789 -1303.8125
v  -313.8906 117.9234 -877.4375
v  -682.6875 -119.3999 -761.0000
v  -146.9844 117.3027 -1054.7500
v  -115.5625 86.0981 -1108.1250
v  13.1719 -33.3354 -1044.0000
v  -67.2500 -34.7614 -1140.7500
v  154.0156 -121.6814 -1064.8750
v  -2.3594 -121.8493 -1256.5625
v  -196.6875 -33.3186 -1193.5625
v  -242.2969 -121.5808 -1330.2500
# 83 vertices

vn 0.6225 0.6919 -0.3657
vn 0.6662 0.6939 -0.2733
vn 0.4612 0.8637 -0.2032
vn 0.4081 0.8763 -0.2560
vn 0.3837 0.9074 -0.1715
vn 0.6459 0.7000 -0.3047
vn 0.6017 0.7068 -0.3721
vn 0.4193 0.8772 -0.2338
vn 0.6872 0.6377 -0.3479
vn 0.4055 0.8820 -0.2402
vn 0.4575 0.8295 -0.3202
vn 0.6643 0.6024 -0.4424
vn 0.6297 0.6173 -0.4716
vn 0.3721 0.8991 -0.2304
vn 0.5709 0.7254 -0.3846
vn 0.2874 0.9346 -0.2097
vn 0.5298 0.6921 -0.4902
vn 0.3013 0.9186 -0.2559
vn 0.3912 0.8793 -0.2718
vn 0.5497 0.7148 -0.4323
vn 0.5855 0.7174 -0.3777
vn 0.3910 0.8701 -0.3003
vn 0.5581 0.6421 -0.5256
vn 0.6034 0.7430 -0.2896
vn 0.3480 0.8842 -0.3115
vn 0.4217 0.8802 -0.2180
vn 0.5685 0.6721 -0.4744
vn 0.4717 0.8165 -0.3329
vn -0.7880 0.5964 -0.1530
vn -0.5934 0.8046 -0.0231
vn -0.6334 0.7732 0.0331
vn -0.7760 0.6297 -0.0351
vn -0.5197 0.8537 0.0330
vn -0.7156 0.6984 0.0100
vn -0.6213 0.7821 -0.0476
vn -0.7740 0.6308 -0.0537
vn -0.7162 0.6912 0.0969
vn -0.7491 0.6615 -0.0339
vn -0.4808 0.8768 0.0059
vn -0.7280 0.6844 -0.0406
vn -0.5470 0.8042 0.2324
vn -0.3796 0.9110 0.1610
vn -0.6464 0.7331 0.2115
vn -0.5966 0.8019 0.0301
vn -0.5021 0.8648 -0.0060
vn -0.3340 0.9406 -0.0604
vn -0.3968 0.9145 0.0792
vn -0.4597 0.8697 0.1797
vn -0.6765 0.7127 0.1857
vn -0.5908 0.8051 0.0523
vn -0.4354 0.8997 0.0322
vn -0.2889 0.9427 -0.1667
vn -0.3457 0.8887 -0.3012
vn -0.1737 0.9287 -0.3277
vn -0.0918 0.9937 -0.0638
vn -0.3524 0.8419 -0.4086
vn -0.1868 0.9270 -0.3251
vn -0.0220 0.9484 -0.3163
vn -0.1531 0.8941 -0.4209
vn 0.7497 0.5384 -0.3848
vn 0.6672 0.6627 -0.3400
vn 0.4314 0.8769 -0.2121
vn -0.2175 0.8975 -0.3837
vn -0.3834 0.6077 -0.6955
vn -0.6193 0.7731 -0.1367
vn -0.3789 0.9233 -0.0621
vn -0.4228 0.6687 -0.6116
vn -0.4783 0.7808 -0.4019
vn -0.2904 0.9562 -0.0370
vn -0.4927 0.8492 0.1898
vn -0.3745 0.8804 -0.2909
vn -0.4645 0.8846 -0.0404
vn -0.2316 0.8959 -0.3791
vn -0.3972 0.9080 0.1333
vn -0.4333 0.8855 0.1678
vn 0.1450 0.8927 -0.4267
vn 0.2501 0.6768 -0.6923
vn 0.4726 0.7264 -0.4990
vn 0.2808 0.6727 -0.6846
vn 0.4039 0.8358 -0.3720
vn 0.1731 0.8354 -0.5217
vn -0.1781 0.7516 -0.6351
vn -0.1355 0.8391 -0.5268
# 83 vertex normals

vt -0.0168 0.1311 0.0000
vt 0.2432 0.1307 0.0000
vt 0.2436 -0.0588 0.0000
vt -0.0168 -0.0588 0.0000
vt 0.2432 0.9843 0.0000
vt 0.2432 0.5189 0.0000
vt -0.0168 0.5242 0.0000
vt -0.0168 0.9843 0.0000
vt 0.7631 0.5104 0.0000
vt 0.7631 0.9843 0.0000
vt 1.0236 0.9843 0.0000
vt 1.0236 0.5104 0.0000
vt 0.7631 0.1307 0.0000
vt 0.7578 -0.0588 0.0000
vt 1.0236 0.1262 0.0000
vt 1.0386 -0.0588 0.0000
vt 0.0324 -0.0588 0.0000
vt 0.0169 0.1262 0.0000
vt 0.2773 0.1262 0.0000
vt 0.2778 -0.0588 0.0000
vt 0.6682 -0.0588 0.0000
vt 0.6673 0.1262 0.0000
vt 1.0089 0.1311 0.0000
vt 1.0089 -0.0588 0.0000
vt 0.6673 0.5104 0.0000
vt 1.0089 0.5242 0.0000
vt 0.6673 0.9843 0.0000
vt 1.0089 0.9843 0.0000
vt 0.2773 0.5104 0.0000
vt 0.2773 0.9843 0.0000
vt 0.0169 0.5104 0.0000
vt 0.0169 0.9843 0.0000
vt 0.7232 0.5375 0.0000
vt 0.7387 0.9843 0.0000
vt 1.0014 0.9843 0.0000
vt 0.9969 0.5379 0.0000
vt 0.5258 0.9843 0.0000
vt 0.5138 0.5375 0.0000
vt 0.7214 0.1338 0.0000
vt 0.4978 0.1307 0.0000
vt 1.0276 0.1626 0.0000
vt 0.3306 0.5375 0.0000
vt 0.3173 0.9843 0.0000
vt 0.3452 0.1307 0.0000
vt 0.3195 -0.0588 0.0000
vt 0.4566 -0.0588 0.0000
vt 0.7112 -0.0588 0.0000
vt 0.9770 -0.0588 0.0000
vt 0.3199 0.9843 0.0000
vt -0.0093 0.5379 0.0000
vt -0.0048 0.9843 0.0000
vt 0.4242 0.5375 0.0000
vt 0.0209 0.1626 0.0000
vt -0.0297 -0.0588 0.0000
vt 0.4433 0.1666 0.0000
vt 0.4197 -0.0588 0.0000
vt 0.6305 -0.0588 0.0000
vt 0.6473 0.1488 0.0000
vt 1.0085 -0.0588 0.0000
vt 0.6225 0.5375 0.0000
vt 0.5950 0.9843 0.0000
vt 0.9992 0.1311 0.0000
vt 0.9992 -0.0588 0.0000
vt 0.7538 -0.0229 0.0000
vt 0.9992 0.5242 0.0000
vt 0.5661 0.1346 0.0000
vt 0.5857 0.5140 0.0000
vt 0.9992 0.9843 0.0000
vt 0.5688 0.9843 0.0000
vt 0.7214 0.1142 0.0000
vt 0.8035 -0.0588 0.0000
vt 0.8164 0.5189 0.0000
vt 0.6425 0.5184 0.0000
vt 0.8239 0.5189 0.0000
vt 0.7800 0.9843 0.0000
vt 0.5218 0.9843 0.0000
vt 0.7875 0.9843 0.0000
# 77 texture coords

o Object003
g Object003
usemtl 08___Default
s 1
f 1/1/1 2/2/2 3/3/3 4/4/4 
f 5/5/5 6/6/6 7/7/7 8/8/8 
f 9/9/9 6/6/6 5/5/5 10/10/10 
f 9/9/9 10/10/10 11/11/11 12/12/12 
f 9/9/9 12/12/12 13/13/13 
f 9/9/9 13/13/13 2/2/2 6/6/6 
f 14/14/14 3/3/3 2/2/2 13/13/13 
f 13/13/13 12/12/12 15/15/15 14/14/14 
f 16/16/16 14/14/14 15/15/15 
f 2/2/2 1/1/1 7/7/7 6/6/6 
f 16/17/16 15/18/15 17/19/17 18/20/18 
f 19/21/19 18/20/18 17/19/17 20/22/20 
f 19/21/19 20/22/20 21/23/21 22/24/22 
f 21/23/21 20/22/20 23/25/23 24/26/24 
f 23/25/23 25/27/25 26/28/26 24/26/24 
f 17/19/17 27/29/27 23/25/23 20/22/20 
f 25/27/25 23/25/23 27/29/27 28/30/28 
f 17/19/17 15/18/15 12/31/12 27/29/27 
f 27/29/27 12/31/12 11/32/11 28/30/28 
f 29/33/29 30/34/30 31/35/31 32/36/32 
f 33/37/33 30/34/30 29/33/29 34/38/34 
f 34/38/34 29/33/29 35/39/35 36/40/36 
f 32/36/32 37/41/37 35/39/35 29/33/29 
f 33/37/33 34/38/34 38/42/38 39/43/39 
f 38/42/38 34/38/34 36/40/36 40/44/40 
f 41/7/41 42/8/42 39/43/39 38/42/38 
f 40/44/40 41/7/41 38/42/38 
f 43/1/43 41/7/41 40/44/40 44/45/44 
f 45/46/45 44/45/44 40/44/40 36/40/36 
f 35/39/35 46/47/46 45/46/45 36/40/36 
f 37/41/37 47/48/47 46/47/46 35/39/35 
f 48/49/48 32/50/32 31/51/31 
f 49/52/49 37/53/37 32/50/32 48/49/48 
f 47/54/47 37/53/37 49/52/49 50/55/50 
f 47/54/47 50/55/50 51/56/51 
f 52/57/52 51/56/51 50/55/50 53/58/53 
f 54/23/54 55/59/55 52/57/52 53/58/53 
f 49/52/49 56/60/56 53/58/53 50/55/50 
f 57/61/57 56/60/56 49/52/49 48/49/48 
f 56/60/56 57/61/57 58/28/58 59/26/59 
f 53/58/53 56/60/56 59/26/59 54/23/54 
f 1/62/1 4/63/4 60/64/60 
f 7/65/7 1/62/1 60/66/60 61/67/61 
f 8/68/8 7/65/7 61/67/61 62/69/62 
f 63/63/63 64/62/64 65/70/65 66/71/66 
f 65/70/65 64/62/64 67/65/67 68/72/68 
f 65/70/65 68/72/68 69/73/69 70/74/70 
f 68/72/68 71/75/71 72/76/72 69/73/69 
f 68/72/68 67/65/67 73/68/73 71/75/71 
f 43/62/43 74/63/74 66/71/66 65/70/65 
f 41/65/41 43/62/43 65/70/65 70/74/70 
f 70/74/70 75/77/75 42/68/42 41/65/41 
f 72/76/72 75/77/75 70/74/70 69/73/69 
f 76/71/76 22/63/22 21/62/21 77/70/77 
f 78/72/78 79/73/79 77/70/77 21/62/21 
f 24/65/24 78/72/78 21/62/21 
f 80/75/80 81/76/81 79/73/79 78/72/78 
f 80/75/80 78/72/78 24/65/24 26/68/26 
f 77/70/77 64/62/64 63/63/63 76/71/76 
f 77/70/77 82/74/82 67/65/67 64/62/64 
f 67/65/67 82/74/82 83/77/83 73/68/73 
f 81/76/81 83/77/83 82/74/82 79/73/79 
f 82/74/82 77/70/77 79/73/79 
# 55 polygons - 8 triangles

#
# object Object002
#

v  -378.1094 87.0878 -833.0000
v  -338.4219 118.9971 -407.4375
v  -36.9219 118.0744 -626.6875
v  -313.8906 117.9234 -877.4375
v  -867.5781 119.3326 1033.0000
v  519.5625 116.0444 1067.3750
v  -583.0313 121.8492 821.9375
v  397.3906 120.0708 683.6875
v  -447.3906 121.2452 614.4375
v  334.0156 119.4501 480.8750
v  -425.0313 120.0876 65.2500
v  -585.1563 120.6581 222.1250
v  352.0938 118.9133 44.2500
v  192.7969 118.6783 -165.7500
v  -430.8438 119.2320 -226.2500
v  165.8594 117.8060 -353.4375
v  -83.2500 117.4370 -944.1250
v  -146.9844 117.3027 -1054.7500
v  -243.8438 117.4370 -1064.1250
v  -322.0156 117.6886 -1000.2500
# 20 vertices

vn -0.4383 0.8942 0.0912
vn -0.0165 0.9997 -0.0162
vn 0.0014 1.0000 -0.0020
vn -0.0746 0.9867 0.1446
vn 0.0057 0.9999 0.0136
vn 0.0055 0.9999 0.0092
vn 0.0055 0.9999 0.0086
vn 0.0023 1.0000 0.0047
vn 0.0011 1.0000 -0.0025
vn 0.0010 1.0000 -0.0029
vn 0.0010 1.0000 -0.0025
vn 0.0010 1.0000 -0.0024
vn 0.0010 1.0000 -0.0019
vn 0.0004 1.0000 -0.0032
vn 0.0005 1.0000 -0.0022
vn 0.0017 1.0000 -0.0043
vn 0.0012 1.0000 -0.0027
vn 0.0010 1.0000 -0.0023
# 18 vertex normals

vt -0.0779 1.1863 0.0000
vt -0.0243 0.9772 0.0000
vt -0.2511 1.0394 0.0000
vt -0.1257 1.1985 0.0000
vt 0.5671 0.3647 0.0000
vt -0.2853 0.1511 0.0000
vt 0.3521 0.4253 0.0000
vt -0.2790 0.3524 0.0000
vt 0.2304 0.5050 0.0000
vt -0.2772 0.4581 0.0000
vt 0.1160 0.7637 0.0000
vt 0.2437 0.7115 0.0000
vt -0.3686 0.6639 0.0000
vt -0.3086 0.7867 0.0000
vt 0.0661 0.9038 0.0000
vt -0.3266 0.8803 0.0000
vt -0.2809 1.1979 0.0000
vt -0.2617 1.2598 0.0000
vt -0.2035 1.2779 0.0000
vt -0.1433 1.2584 0.0000
# 20 texture coords

o Object002
g Object002
usemtl 07___Default
s 1
f 84/78/84 85/79/85 86/80/86 87/81/87 
f 88/82/88 89/83/89 90/84/90 
f 90/84/90 89/83/89 91/85/91 92/86/92 
f 92/86/92 91/85/91 93/87/93 
f 92/86/92 93/87/93 94/88/94 95/89/95 
f 94/88/94 93/87/93 96/90/96 
f 94/88/94 96/90/96 97/91/97 98/92/98 
f 97/91/97 99/93/99 85/79/85 98/92/98 
f 85/79/85 99/93/99 86/80/86 
f 87/81/87 86/80/86 100/94/100 101/95/95 
f 101/95/95 102/96/101 103/97/95 87/81/87 
# 7 polygons - 4 triangles

