%YAML 1.1
%TAG !u! tag:unity3d.com,2011:
--- !u!1 &8777647796259451142
GameObject:
  m_ObjectHideFlags: 0
  m_CorrespondingSourceObject: {fileID: 0}
  m_PrefabInstance: {fileID: 0}
  m_PrefabAsset: {fileID: 0}
  serializedVersion: 6
  m_Component:
  - component: {fileID: 7057254150744606806}
  m_Layer: 0
  m_Name: Building2_Lights
  m_TagString: Untagged
  m_Icon: {fileID: 0}
  m_NavMeshLayer: 0
  m_StaticEditorFlags: 0
  m_IsActive: 1
--- !u!4 &7057254150744606806
Transform:
  m_ObjectHideFlags: 0
  m_CorrespondingSourceObject: {fileID: 0}
  m_PrefabInstance: {fileID: 0}
  m_PrefabAsset: {fileID: 0}
  m_GameObject: {fileID: 8777647796259451142}
  m_LocalRotation: {x: 0, y: 0, z: 0, w: 1}
  m_LocalPosition: {x: 0, y: 0, z: 0}
  m_LocalScale: {x: 1, y: 1, z: 1}
  m_Children:
  - {fileID: 2457580429302714101}
  - {fileID: 2961309934912844490}
  m_Father: {fileID: 0}
  m_RootOrder: 0
  m_LocalEulerAnglesHint: {x: 0, y: 0, z: 0}
--- !u!1001 &4715181079818374641
PrefabInstance:
  m_ObjectHideFlags: 0
  serializedVersion: 2
  m_Modification:
    m_TransformParent: {fileID: 7057254150744606806}
    m_Modifications:
    - target: {fileID: 5366927779916956665, guid: e3bfce8d8e2eb5d4f96de85533c8877f,
        type: 3}
      propertyPath: m_Name
      value: Light (1)
      objectReference: {fileID: 0}
    - target: {fileID: 7527519970988080955, guid: e3bfce8d8e2eb5d4f96de85533c8877f,
        type: 3}
      propertyPath: m_LocalPosition.x
      value: -3.810001
      objectReference: {fileID: 0}
    - target: {fileID: 7527519970988080955, guid: e3bfce8d8e2eb5d4f96de85533c8877f,
        type: 3}
      propertyPath: m_LocalPosition.y
      value: 2.3102016
      objectReference: {fileID: 0}
    - target: {fileID: 7527519970988080955, guid: e3bfce8d8e2eb5d4f96de85533c8877f,
        type: 3}
      propertyPath: m_LocalPosition.z
      value: 2.7300029
      objectReference: {fileID: 0}
    - target: {fileID: 7527519970988080955, guid: e3bfce8d8e2eb5d4f96de85533c8877f,
        type: 3}
      propertyPath: m_LocalRotation.x
      value: -0
      objectReference: {fileID: 0}
    - target: {fileID: 7527519970988080955, guid: e3bfce8d8e2eb5d4f96de85533c8877f,
        type: 3}
      propertyPath: m_LocalRotation.y
      value: 0.7225543
      objectReference: {fileID: 0}
    - target: {fileID: 7527519970988080955, guid: e3bfce8d8e2eb5d4f96de85533c8877f,
        type: 3}
      propertyPath: m_LocalRotation.z
      value: -0
      objectReference: {fileID: 0}
    - target: {fileID: 7527519970988080955, guid: e3bfce8d8e2eb5d4f96de85533c8877f,
        type: 3}
      propertyPath: m_LocalRotation.w
      value: -0.6913143
      objectReference: {fileID: 0}
    - target: {fileID: 7527519970988080955, guid: e3bfce8d8e2eb5d4f96de85533c8877f,
        type: 3}
      propertyPath: m_RootOrder
      value: 1
      objectReference: {fileID: 0}
    - target: {fileID: 7527519970988080955, guid: e3bfce8d8e2eb5d4f96de85533c8877f,
        type: 3}
      propertyPath: m_LocalEulerAnglesHint.x
      value: 0
      objectReference: {fileID: 0}
    - target: {fileID: 7527519970988080955, guid: e3bfce8d8e2eb5d4f96de85533c8877f,
        type: 3}
      propertyPath: m_LocalEulerAnglesHint.y
      value: 267.468
      objectReference: {fileID: 0}
    - target: {fileID: 7527519970988080955, guid: e3bfce8d8e2eb5d4f96de85533c8877f,
        type: 3}
      propertyPath: m_LocalEulerAnglesHint.z
      value: 0
      objectReference: {fileID: 0}
    - target: {fileID: 7527519970988080955, guid: e3bfce8d8e2eb5d4f96de85533c8877f,
        type: 3}
      propertyPath: m_LocalScale.x
      value: 0.42443365
      objectReference: {fileID: 0}
    - target: {fileID: 7527519970988080955, guid: e3bfce8d8e2eb5d4f96de85533c8877f,
        type: 3}
      propertyPath: m_LocalScale.z
      value: 0.42443365
      objectReference: {fileID: 0}
    - target: {fileID: 7527519970988080955, guid: e3bfce8d8e2eb5d4f96de85533c8877f,
        type: 3}
      propertyPath: m_LocalScale.y
      value: 0.42443272
      objectReference: {fileID: 0}
    - target: {fileID: 3262755845605467806, guid: e3bfce8d8e2eb5d4f96de85533c8877f,
        type: 3}
      propertyPath: m_IsActive
      value: 0
      objectReference: {fileID: 0}
    m_RemovedComponents: []
  m_SourcePrefab: {fileID: 100100000, guid: e3bfce8d8e2eb5d4f96de85533c8877f, type: 3}
--- !u!4 &2961309934912844490 stripped
Transform:
  m_CorrespondingSourceObject: {fileID: 7527519970988080955, guid: e3bfce8d8e2eb5d4f96de85533c8877f,
    type: 3}
  m_PrefabInstance: {fileID: 4715181079818374641}
  m_PrefabAsset: {fileID: 0}
--- !u!1001 &5362674342418018766
PrefabInstance:
  m_ObjectHideFlags: 0
  serializedVersion: 2
  m_Modification:
    m_TransformParent: {fileID: 7057254150744606806}
    m_Modifications:
    - target: {fileID: 5366927779916956665, guid: e3bfce8d8e2eb5d4f96de85533c8877f,
        type: 3}
      propertyPath: m_Name
      value: Light
      objectReference: {fileID: 0}
    - target: {fileID: 7527519970988080955, guid: e3bfce8d8e2eb5d4f96de85533c8877f,
        type: 3}
      propertyPath: m_LocalPosition.x
      value: -3.5800004
      objectReference: {fileID: 0}
    - target: {fileID: 7527519970988080955, guid: e3bfce8d8e2eb5d4f96de85533c8877f,
        type: 3}
      propertyPath: m_LocalPosition.y
      value: 2.3102016
      objectReference: {fileID: 0}
    - target: {fileID: 7527519970988080955, guid: e3bfce8d8e2eb5d4f96de85533c8877f,
        type: 3}
      propertyPath: m_LocalPosition.z
      value: -2.5400004
      objectReference: {fileID: 0}
    - target: {fileID: 7527519970988080955, guid: e3bfce8d8e2eb5d4f96de85533c8877f,
        type: 3}
      propertyPath: m_LocalRotation.x
      value: -0
      objectReference: {fileID: 0}
    - target: {fileID: 7527519970988080955, guid: e3bfce8d8e2eb5d4f96de85533c8877f,
        type: 3}
      propertyPath: m_LocalRotation.y
      value: 0.7225543
      objectReference: {fileID: 0}
    - target: {fileID: 7527519970988080955, guid: e3bfce8d8e2eb5d4f96de85533c8877f,
        type: 3}
      propertyPath: m_LocalRotation.z
      value: -0
      objectReference: {fileID: 0}
    - target: {fileID: 7527519970988080955, guid: e3bfce8d8e2eb5d4f96de85533c8877f,
        type: 3}
      propertyPath: m_LocalRotation.w
      value: -0.6913143
      objectReference: {fileID: 0}
    - target: {fileID: 7527519970988080955, guid: e3bfce8d8e2eb5d4f96de85533c8877f,
        type: 3}
      propertyPath: m_RootOrder
      value: 0
      objectReference: {fileID: 0}
    - target: {fileID: 7527519970988080955, guid: e3bfce8d8e2eb5d4f96de85533c8877f,
        type: 3}
      propertyPath: m_LocalEulerAnglesHint.x
      value: 0
      objectReference: {fileID: 0}
    - target: {fileID: 7527519970988080955, guid: e3bfce8d8e2eb5d4f96de85533c8877f,
        type: 3}
      propertyPath: m_LocalEulerAnglesHint.y
      value: 267.468
      objectReference: {fileID: 0}
    - target: {fileID: 7527519970988080955, guid: e3bfce8d8e2eb5d4f96de85533c8877f,
        type: 3}
      propertyPath: m_LocalEulerAnglesHint.z
      value: 0
      objectReference: {fileID: 0}
    - target: {fileID: 7527519970988080955, guid: e3bfce8d8e2eb5d4f96de85533c8877f,
        type: 3}
      propertyPath: m_LocalScale.x
      value: 0.42443365
      objectReference: {fileID: 0}
    - target: {fileID: 7527519970988080955, guid: e3bfce8d8e2eb5d4f96de85533c8877f,
        type: 3}
      propertyPath: m_LocalScale.z
      value: 0.42443365
      objectReference: {fileID: 0}
    - target: {fileID: 7527519970988080955, guid: e3bfce8d8e2eb5d4f96de85533c8877f,
        type: 3}
      propertyPath: m_LocalScale.y
      value: 0.42443272
      objectReference: {fileID: 0}
    - target: {fileID: 3262755845605467806, guid: e3bfce8d8e2eb5d4f96de85533c8877f,
        type: 3}
      propertyPath: m_IsActive
      value: 0
      objectReference: {fileID: 0}
    m_RemovedComponents: []
  m_SourcePrefab: {fileID: 100100000, guid: e3bfce8d8e2eb5d4f96de85533c8877f, type: 3}
--- !u!4 &2457580429302714101 stripped
Transform:
  m_CorrespondingSourceObject: {fileID: 7527519970988080955, guid: e3bfce8d8e2eb5d4f96de85533c8877f,
    type: 3}
  m_PrefabInstance: {fileID: 5362674342418018766}
  m_PrefabAsset: {fileID: 0}
