%YAML 1.1
%TAG !u! tag:unity3d.com,2011:
--- !u!21 &2100000
Material:
  serializedVersion: 6
  m_ObjectHideFlags: 0
  m_CorrespondingSourceObject: {fileID: 0}
  m_PrefabInstance: {fileID: 0}
  m_PrefabAsset: {fileID: 0}
  m_Name: Amplify_RockMoss 1
  m_Shader: {fileID: 4800000, guid: 42857f83cf8174149ad09cd2f194a15a, type: 3}
  m_ShaderKeywords: 
  m_LightmapFlags: 4
  m_EnableInstancingVariants: 0
  m_DoubleSidedGI: 0
  m_CustomRenderQueue: -1
  stringTagMap: {}
  disabledShaderPasses: []
  m_SavedProperties:
    serializedVersion: 3
    m_TexEnvs:
    - _MossDiffuse:
        m_Texture: {fileID: 2800000, guid: 4d8ecbbd92cd1a045b7a0730dc476986, type: 3}
        m_Scale: {x: 1, y: 1}
        m_Offset: {x: 0, y: 0}
    - _RockDiffuse:
        m_Texture: {fileID: 2800000, guid: 68f3003a4e8b391469cd1f170a39b29f, type: 3}
        m_Scale: {x: 1, y: 1}
        m_Offset: {x: 0, y: 0}
    - _texcoord:
        m_Texture: {fileID: 0}
        m_Scale: {x: 1, y: 1}
        m_Offset: {x: 0, y: 0}
    m_Floats:
    - _Contrast: 2.1
    - _Float0: 0.5
    - _Level: 0.86
    - _Metallic: 0
    - _MossSmoothness: 0.254
    - _RockSmoothness: 0.024
    - _UpNode: 0.5
    - __dirty: 0
    m_Colors:
    - _MossOffset: {r: 0, g: 3, b: 0, a: 0}
    - _MossTiling: {r: 1, g: 1, b: 0, a: 0}
    - _RockTiling: {r: 0.5, g: 0.5, b: 0, a: 0}
