%YAML 1.1
%TAG !u! tag:unity3d.com,2011:
--- !u!1 &366352795075714776
GameObject:
  m_ObjectHideFlags: 0
  m_CorrespondingSourceObject: {fileID: 0}
  m_PrefabInstance: {fileID: 0}
  m_PrefabAsset: {fileID: 0}
  serializedVersion: 6
  m_Component:
  - component: {fileID: 4877345059388117251}
  m_Layer: 11
  m_Name: Bamboo_large01
  m_TagString: Untagged
  m_Icon: {fileID: 0}
  m_NavMeshLayer: 0
  m_StaticEditorFlags: 20
  m_IsActive: 1
--- !u!4 &4877345059388117251
Transform:
  m_ObjectHideFlags: 0
  m_CorrespondingSourceObject: {fileID: 0}
  m_PrefabInstance: {fileID: 0}
  m_PrefabAsset: {fileID: 0}
  m_GameObject: {fileID: 366352795075714776}
  m_LocalRotation: {x: 0, y: 0, z: 0, w: 1}
  m_LocalPosition: {x: 0, y: 0, z: 0}
  m_LocalScale: {x: 1, y: 1, z: 1}
  m_Children:
  - {fileID: 7044969759386706753}
  m_Father: {fileID: 0}
  m_RootOrder: 0
  m_LocalEulerAnglesHint: {x: 0, y: 0, z: 0}
--- !u!136 &1720749721716209844
CapsuleCollider:
  m_ObjectHideFlags: 0
  m_CorrespondingSourceObject: {fileID: 0}
  m_PrefabInstance: {fileID: 0}
  m_PrefabAsset: {fileID: 0}
  m_GameObject: {fileID: 6313936122800755026}
  m_Material: {fileID: 0}
  m_IsTrigger: 0
  m_Enabled: 1
  m_Radius: 0.050956387
  m_Height: 2.0564492
  m_Direction: 2
  m_Center: {x: -0.0032079285, y: -0.0066416115, z: 0.9988536}
--- !u!1001 &2647683807507155035
PrefabInstance:
  m_ObjectHideFlags: 0
  serializedVersion: 2
  m_Modification:
    m_TransformParent: {fileID: 4877345059388117251}
    m_Modifications:
    - target: {fileID: -927199367670048503, guid: 011fe6753cb67204da5c7e5e635b510b,
        type: 3}
      propertyPath: m_Name
      value: bamboo_large01
      objectReference: {fileID: 0}
    - target: {fileID: -927199367670048503, guid: 011fe6753cb67204da5c7e5e635b510b,
        type: 3}
      propertyPath: m_StaticEditorFlags
      value: 20
      objectReference: {fileID: 0}
    - target: {fileID: -927199367670048503, guid: 011fe6753cb67204da5c7e5e635b510b,
        type: 3}
      propertyPath: m_Layer
      value: 11
      objectReference: {fileID: 0}
    - target: {fileID: -4216859302048453862, guid: 011fe6753cb67204da5c7e5e635b510b,
        type: 3}
      propertyPath: m_LocalPosition.x
      value: 0
      objectReference: {fileID: 0}
    - target: {fileID: -4216859302048453862, guid: 011fe6753cb67204da5c7e5e635b510b,
        type: 3}
      propertyPath: m_LocalPosition.y
      value: 0
      objectReference: {fileID: 0}
    - target: {fileID: -4216859302048453862, guid: 011fe6753cb67204da5c7e5e635b510b,
        type: 3}
      propertyPath: m_LocalPosition.z
      value: 0
      objectReference: {fileID: 0}
    - target: {fileID: -4216859302048453862, guid: 011fe6753cb67204da5c7e5e635b510b,
        type: 3}
      propertyPath: m_LocalRotation.x
      value: -0.7071068
      objectReference: {fileID: 0}
    - target: {fileID: -4216859302048453862, guid: 011fe6753cb67204da5c7e5e635b510b,
        type: 3}
      propertyPath: m_LocalRotation.y
      value: 0
      objectReference: {fileID: 0}
    - target: {fileID: -4216859302048453862, guid: 011fe6753cb67204da5c7e5e635b510b,
        type: 3}
      propertyPath: m_LocalRotation.z
      value: 0
      objectReference: {fileID: 0}
    - target: {fileID: -4216859302048453862, guid: 011fe6753cb67204da5c7e5e635b510b,
        type: 3}
      propertyPath: m_LocalRotation.w
      value: 0.7071068
      objectReference: {fileID: 0}
    - target: {fileID: -4216859302048453862, guid: 011fe6753cb67204da5c7e5e635b510b,
        type: 3}
      propertyPath: m_RootOrder
      value: 0
      objectReference: {fileID: 0}
    - target: {fileID: -4216859302048453862, guid: 011fe6753cb67204da5c7e5e635b510b,
        type: 3}
      propertyPath: m_LocalEulerAnglesHint.x
      value: -90
      objectReference: {fileID: 0}
    - target: {fileID: -4216859302048453862, guid: 011fe6753cb67204da5c7e5e635b510b,
        type: 3}
      propertyPath: m_LocalEulerAnglesHint.y
      value: 0
      objectReference: {fileID: 0}
    - target: {fileID: -4216859302048453862, guid: 011fe6753cb67204da5c7e5e635b510b,
        type: 3}
      propertyPath: m_LocalEulerAnglesHint.z
      value: 0
      objectReference: {fileID: 0}
    - target: {fileID: -1504981713932161579, guid: 011fe6753cb67204da5c7e5e635b510b,
        type: 3}
      propertyPath: m_Materials.Array.data[0]
      value: 
      objectReference: {fileID: 2100000, guid: 4191acadaf9521345a39feb1cc10f358, type: 2}
    m_RemovedComponents: []
  m_SourcePrefab: {fileID: 100100000, guid: 011fe6753cb67204da5c7e5e635b510b, type: 3}
--- !u!1 &6313936122800755026 stripped
GameObject:
  m_CorrespondingSourceObject: {fileID: -927199367670048503, guid: 011fe6753cb67204da5c7e5e635b510b,
    type: 3}
  m_PrefabInstance: {fileID: 2647683807507155035}
  m_PrefabAsset: {fileID: 0}
--- !u!4 &7044969759386706753 stripped
Transform:
  m_CorrespondingSourceObject: {fileID: -4216859302048453862, guid: 011fe6753cb67204da5c7e5e635b510b,
    type: 3}
  m_PrefabInstance: {fileID: 2647683807507155035}
  m_PrefabAsset: {fileID: 0}
