%YAML 1.1
%TAG !u! tag:unity3d.com,2011:
--- !u!1 &7209538573012834302
GameObject:
  m_ObjectHideFlags: 0
  m_CorrespondingSourceObject: {fileID: 0}
  m_PrefabInstance: {fileID: 0}
  m_PrefabAsset: {fileID: 0}
  serializedVersion: 6
  m_Component:
  - component: {fileID: 9128443209771690071}
  m_Layer: 0
  m_Name: Bamboo_medium1
  m_TagString: Untagged
  m_Icon: {fileID: 0}
  m_NavMeshLayer: 0
  m_StaticEditorFlags: 20
  m_IsActive: 1
--- !u!4 &9128443209771690071
Transform:
  m_ObjectHideFlags: 0
  m_CorrespondingSourceObject: {fileID: 0}
  m_PrefabInstance: {fileID: 0}
  m_PrefabAsset: {fileID: 0}
  m_GameObject: {fileID: 7209538573012834302}
  m_LocalRotation: {x: 0, y: 0, z: 0, w: 1}
  m_LocalPosition: {x: 0, y: 0, z: 0}
  m_LocalScale: {x: 1, y: 1, z: 1}
  m_Children:
  - {fileID: 8358522210163529791}
  m_Father: {fileID: 0}
  m_RootOrder: 0
  m_LocalEulerAnglesHint: {x: 0, y: 0, z: 0}
--- !u!1001 &3928787475473576741
PrefabInstance:
  m_ObjectHideFlags: 0
  serializedVersion: 2
  m_Modification:
    m_TransformParent: {fileID: 9128443209771690071}
    m_Modifications:
    - target: {fileID: -927199367670048503, guid: af30e2495949ef946a1aeae69c694247,
        type: 3}
      propertyPath: m_Name
      value: bamboo_medium01
      objectReference: {fileID: 0}
    - target: {fileID: -927199367670048503, guid: af30e2495949ef946a1aeae69c694247,
        type: 3}
      propertyPath: m_StaticEditorFlags
      value: 20
      objectReference: {fileID: 0}
    - target: {fileID: -4216859302048453862, guid: af30e2495949ef946a1aeae69c694247,
        type: 3}
      propertyPath: m_LocalPosition.x
      value: 0
      objectReference: {fileID: 0}
    - target: {fileID: -4216859302048453862, guid: af30e2495949ef946a1aeae69c694247,
        type: 3}
      propertyPath: m_LocalPosition.y
      value: 0
      objectReference: {fileID: 0}
    - target: {fileID: -4216859302048453862, guid: af30e2495949ef946a1aeae69c694247,
        type: 3}
      propertyPath: m_LocalPosition.z
      value: 0
      objectReference: {fileID: 0}
    - target: {fileID: -4216859302048453862, guid: af30e2495949ef946a1aeae69c694247,
        type: 3}
      propertyPath: m_LocalRotation.x
      value: -0
      objectReference: {fileID: 0}
    - target: {fileID: -4216859302048453862, guid: af30e2495949ef946a1aeae69c694247,
        type: 3}
      propertyPath: m_LocalRotation.y
      value: -0.7071068
      objectReference: {fileID: 0}
    - target: {fileID: -4216859302048453862, guid: af30e2495949ef946a1aeae69c694247,
        type: 3}
      propertyPath: m_LocalRotation.z
      value: -0.7071068
      objectReference: {fileID: 0}
    - target: {fileID: -4216859302048453862, guid: af30e2495949ef946a1aeae69c694247,
        type: 3}
      propertyPath: m_LocalRotation.w
      value: 0
      objectReference: {fileID: 0}
    - target: {fileID: -4216859302048453862, guid: af30e2495949ef946a1aeae69c694247,
        type: 3}
      propertyPath: m_RootOrder
      value: 0
      objectReference: {fileID: 0}
    - target: {fileID: -4216859302048453862, guid: af30e2495949ef946a1aeae69c694247,
        type: 3}
      propertyPath: m_LocalEulerAnglesHint.x
      value: -90.00001
      objectReference: {fileID: 0}
    - target: {fileID: -4216859302048453862, guid: af30e2495949ef946a1aeae69c694247,
        type: 3}
      propertyPath: m_LocalEulerAnglesHint.y
      value: -180
      objectReference: {fileID: 0}
    - target: {fileID: -4216859302048453862, guid: af30e2495949ef946a1aeae69c694247,
        type: 3}
      propertyPath: m_LocalEulerAnglesHint.z
      value: 0
      objectReference: {fileID: 0}
    - target: {fileID: -1504981713932161579, guid: af30e2495949ef946a1aeae69c694247,
        type: 3}
      propertyPath: m_Materials.Array.data[0]
      value: 
      objectReference: {fileID: 2100000, guid: 4191acadaf9521345a39feb1cc10f358, type: 2}
    m_RemovedComponents: []
  m_SourcePrefab: {fileID: 100100000, guid: af30e2495949ef946a1aeae69c694247, type: 3}
--- !u!4 &8358522210163529791 stripped
Transform:
  m_CorrespondingSourceObject: {fileID: -4216859302048453862, guid: af30e2495949ef946a1aeae69c694247,
    type: 3}
  m_PrefabInstance: {fileID: 3928787475473576741}
  m_PrefabAsset: {fileID: 0}
