%YAML 1.1
%TAG !u! tag:unity3d.com,2011:
--- !u!114 &11400000
MonoBehaviour:
  m_ObjectHideFlags: 0
  m_CorrespondingSourceObject: {fileID: 0}
  m_PrefabInstance: {fileID: 0}
  m_PrefabAsset: {fileID: 0}
  m_GameObject: {fileID: 0}
  m_Enabled: 1
  m_EditorHideFlags: 0
  m_Script: {fileID: 11500000, guid: dda436a9c8bbd4d109478acf25cd48d8, type: 3}
  m_Name: ProBuilder DataDefault Color Palette
  m_EditorClassIdentifier: 
  m_Colors:
  - {r: 0, g: 0.122, b: 0.247, a: 1}
  - {r: 0, g: 0.455, b: 0.851, a: 1}
  - {r: 0.498, g: 0.859, b: 1, a: 1}
  - {r: 0.224, g: 0.8, b: 0.8, a: 1}
  - {r: 0.064836234, g: 0.2924528, b: 0.19101498, a: 1}
  - {r: 0.1284265, g: 0.6981132, b: 0.1933275, a: 1}
  - {r: 0.004, g: 1, b: 0.439, a: 1}
  - {r: 1, g: 0.863, b: 0, a: 1}
  - {r: 1, g: 0.522, b: 0.106, a: 1}
  - {r: 1, g: 0.255, b: 0.212, a: 1}
  - {r: 0.522, g: 0.078, b: 0.294, a: 1}
  - {r: 0.941, g: 0.071, b: 0.745, a: 1}
  - {r: 0.694, g: 0.051, b: 0.788, a: 1}
  - {r: 0.067, g: 0.067, b: 0.067, a: 1}
  - {r: 0.4339623, g: 0.4339623, b: 0.4339623, a: 1}
  - {r: 0.867, g: 0.867, b: 0.867, a: 1}
